<?xml version="1.0"?>
<svg xmlns="http://www.w3.org/2000/svg" xmlns:xlink="http://www.w3.org/1999/xlink" xmlns:svgjs="http://svgjs.com/svgjs" version="1.1" width="512" height="512" x="0" y="0" viewBox="0 0 480 480" style="enable-background:new 0 0 512 512" xml:space="preserve"><g>
<g xmlns="http://www.w3.org/2000/svg">
	<g>
		<path d="M88,136c-26.51,0-48,21.49-48,48c0.029,26.498,21.502,47.971,48,48c26.51,0,48-21.49,48-48C136,157.49,114.51,136,88,136z     M88,216c-17.673,0-32-14.327-32-32c0.019-17.665,14.335-31.981,32-32c17.673,0,32,14.327,32,32S105.673,216,88,216z" fill="#ffffff" data-original="#000000" style=""/>
	</g>
</g>
<g xmlns="http://www.w3.org/2000/svg">
	<g>
		<path d="M216,48c-35.346,0-64,28.654-64,64c0.04,35.329,28.671,63.96,64,64c35.346,0,64-28.654,64-64    C280,76.654,251.346,48,216,48z M216,160c-26.51,0-48-21.49-48-48c0.029-26.498,21.502-47.971,48-48c26.51,0,48,21.49,48,48    S242.51,160,216,160z" fill="#ffffff" data-original="#000000" style=""/>
	</g>
</g>
<g xmlns="http://www.w3.org/2000/svg">
	<g>
		<path d="M280,288c-22.091,0-40,17.909-40,40c0,22.091,17.909,40,40,40c22.091,0,40-17.909,40-40    C319.974,305.919,302.081,288.026,280,288z M280,352c-13.255,0-24-10.745-24-24s10.745-24,24-24s24,10.745,24,24    C303.986,341.249,293.249,351.986,280,352z" fill="#ffffff" data-original="#000000" style=""/>
	</g>
</g>
<g xmlns="http://www.w3.org/2000/svg">
	<g>
		<path d="M160,280c-39.764,0-72,32.235-72,72c0,39.764,32.236,72,72,72c39.765,0,72-32.236,72-72    C231.955,312.254,199.746,280.045,160,280z M160,408c-30.928,0-56-25.072-56-56c0-30.928,25.072-56,56-56    c30.928,0,56,25.072,56,56C215.964,382.913,190.913,407.964,160,408z" fill="#ffffff" data-original="#000000" style=""/>
	</g>
</g>
<g xmlns="http://www.w3.org/2000/svg">
	<g>
		<path d="M256,392c-17.673,0-32,14.327-32,32c0,17.673,14.327,32,32,32c17.673,0,32-14.327,32-32    C287.981,406.335,273.665,392.019,256,392z M256,440c-8.837,0-16-7.163-16-16s7.163-16,16-16s16,7.163,16,16    C271.99,432.832,264.832,439.99,256,440z" fill="#ffffff" data-original="#000000" style=""/>
	</g>
</g>
<g xmlns="http://www.w3.org/2000/svg">
	<g>
		<path d="M376,272c-26.51,0-48,21.49-48,48c0,26.51,21.49,48,48,48c26.51,0,48-21.49,48-48    C423.971,293.502,402.498,272.029,376,272z M376,352c-17.673,0-32-14.327-32-32c0-17.673,14.327-32,32-32    c17.673,0,32,14.327,32,32C407.981,337.665,393.665,351.981,376,352z" fill="#ffffff" data-original="#000000" style=""/>
	</g>
</g>
<g xmlns="http://www.w3.org/2000/svg">
	<g>
		<path d="M240,0C107.452,0,0,107.452,0,240s107.452,240,240,240s240-107.452,240-240C479.85,107.514,372.486,0.15,240,0z M344,64    c0,13.255-10.745,24-24,24s-24-10.745-24-24s10.745-24,24-24C333.249,40.014,343.986,50.751,344,64z M112,72    c8.837,0,16,7.163,16,16s-7.163,16-16,16s-16-7.163-16-16C96.01,79.168,103.168,72.01,112,72z M240,464    C116.365,464.077,16.077,363.913,16,240.278c-0.037-58.903,23.143-115.446,64.515-157.374C80.206,84.587,80.034,86.29,80,88    c-0.021,17.673,14.288,32.017,31.961,32.039S143.978,105.751,144,88.078c0.021-17.529-14.063-31.812-31.591-32.036    c56.817-39.525,128.736-50.507,194.76-29.74c-20.912,7.095-32.112,29.8-25.016,50.711c7.095,20.912,29.8,32.112,50.711,25.016    c20.912-7.095,32.112-29.8,25.016-50.711c-0.252-0.743-0.526-1.478-0.821-2.204c105.457,64.617,138.564,202.489,73.946,307.946    C390.285,423.516,317.94,464.021,240,464z" fill="#ffffff" data-original="#000000" style=""/>
	</g>
</g>
<g xmlns="http://www.w3.org/2000/svg">
	<g>
		<path d="M72,264c-13.255,0-24,10.745-24,24s10.745,24,24,24c13.249-0.014,23.986-10.751,24-24C96,274.745,85.255,264,72,264z     M72,296c-4.418,0-8-3.582-8-8s3.582-8,8-8s8,3.582,8,8C79.996,292.416,76.416,295.996,72,296z" fill="#ffffff" data-original="#000000" style=""/>
	</g>
</g>
<g xmlns="http://www.w3.org/2000/svg">
	<g>
		<path d="M176,192c-22.091,0-40,17.909-40,40c0.026,22.081,17.919,39.974,40,40c22.091,0,40-17.909,40-40S198.091,192,176,192z     M176,256c-13.255,0-24-10.745-24-24c0.014-13.249,10.751-23.986,24-24c13.255,0,24,10.745,24,24S189.255,256,176,256z" fill="#ffffff" data-original="#000000" style=""/>
	</g>
</g>
<g xmlns="http://www.w3.org/2000/svg">
	<g>
		<path d="M280,176c-26.498,0.029-47.971,21.502-48,48c0,26.51,21.49,48,48,48c26.51,0,48-21.49,48-48    C328,197.49,306.51,176,280,176z M280,256c-17.673,0-32-14.327-32-32s14.327-32,32-32c17.665,0.019,31.981,14.335,32,32    C312,241.673,297.673,256,280,256z" fill="#ffffff" data-original="#000000" style=""/>
	</g>
</g>
<g xmlns="http://www.w3.org/2000/svg">
	<g>
		<path d="M392,152c-30.913,0.036-55.964,25.087-56,56c0,30.928,25.072,56,56,56c30.928,0,56-25.072,56-56    C448,177.072,422.928,152,392,152z M392,248c-22.091,0-40-17.909-40-40s17.909-40,40-40c22.081,0.026,39.974,17.919,40,40    C432,230.091,414.091,248,392,248z" fill="#ffffff" data-original="#000000" style=""/>
	</g>
</g>
<g xmlns="http://www.w3.org/2000/svg">
	<g>
		<path d="M384,96c-13.249,0.014-23.986,10.751-24,24c0,13.255,10.745,24,24,24s24-10.745,24-24S397.255,96,384,96z M384,128    c-4.418,0-8-3.582-8-8s3.582-8,8-8c4.416,0.004,7.996,3.584,8,8C392,124.418,388.418,128,384,128z" fill="#ffffff" data-original="#000000" style=""/>
	</g>
</g>
<g xmlns="http://www.w3.org/2000/svg">
</g>
<g xmlns="http://www.w3.org/2000/svg">
</g>
<g xmlns="http://www.w3.org/2000/svg">
</g>
<g xmlns="http://www.w3.org/2000/svg">
</g>
<g xmlns="http://www.w3.org/2000/svg">
</g>
<g xmlns="http://www.w3.org/2000/svg">
</g>
<g xmlns="http://www.w3.org/2000/svg">
</g>
<g xmlns="http://www.w3.org/2000/svg">
</g>
<g xmlns="http://www.w3.org/2000/svg">
</g>
<g xmlns="http://www.w3.org/2000/svg">
</g>
<g xmlns="http://www.w3.org/2000/svg">
</g>
<g xmlns="http://www.w3.org/2000/svg">
</g>
<g xmlns="http://www.w3.org/2000/svg">
</g>
<g xmlns="http://www.w3.org/2000/svg">
</g>
<g xmlns="http://www.w3.org/2000/svg">
</g>
</g></svg>
